{
"meta":{"test_sets":[],"test_metrics":[],"learn_metrics":[{"best_value":"Min","name":"Logloss"}],"launch_mode":"Train","parameters":"","iteration_count":20,"learn_sets":["learn"],"name":"experiment"},
"iterations":[
{"learn":[0.6800502497],"iteration":0,"passed_time":0.004178119654,"remaining_time":0.07938427342},
{"learn":[0.6763342385],"iteration":1,"passed_time":0.009137999514,"remaining_time":0.08224199563},
{"learn":[0.675044329],"iteration":2,"passed_time":0.01263558164,"remaining_time":0.07160162927},
{"learn":[0.6742896502],"iteration":3,"passed_time":0.01634379498,"remaining_time":0.06537517993},
{"learn":[0.6739391015],"iteration":4,"passed_time":0.02028334555,"remaining_time":0.06085003664},
{"learn":[0.6737184934],"iteration":5,"passed_time":0.0242114793,"remaining_time":0.0564934517},
{"learn":[0.673421232],"iteration":6,"passed_time":0.02790507527,"remaining_time":0.05182371121},
{"learn":[0.6731640414],"iteration":7,"passed_time":0.03178339326,"remaining_time":0.04767508989},
{"learn":[0.672935822],"iteration":8,"passed_time":0.03552440391,"remaining_time":0.04341871589},
{"learn":[0.6728181567],"iteration":9,"passed_time":0.03922814671,"remaining_time":0.03922814671},
{"learn":[0.6724845587],"iteration":10,"passed_time":0.04282423446,"remaining_time":0.03503801001},
{"learn":[0.6722850582],"iteration":11,"passed_time":0.04649842392,"remaining_time":0.03099894928},
{"learn":[0.6721382277],"iteration":12,"passed_time":0.05015830157,"remaining_time":0.02700831623},
{"learn":[0.6719977714],"iteration":13,"passed_time":0.05386305306,"remaining_time":0.0230841656},
{"learn":[0.6718433824],"iteration":14,"passed_time":0.05790968315,"remaining_time":0.01930322772},
{"learn":[0.6716386566],"iteration":15,"passed_time":0.06164558957,"remaining_time":0.01541139739},
{"learn":[0.6715626807],"iteration":16,"passed_time":0.06540360998,"remaining_time":0.01154181353},
{"learn":[0.6715515478],"iteration":17,"passed_time":0.06838851093,"remaining_time":0.007598723437},
{"learn":[0.6712553439],"iteration":18,"passed_time":0.07226790013,"remaining_time":0.003803573691},
{"learn":[0.6709913885],"iteration":19,"passed_time":0.07593313635,"remaining_time":0}
]}