iter	Logloss
0	0.6710045398
1	0.6516057759
2	0.632851574
3	0.6174152361
4	0.6040313982
5	0.5899676466
6	0.5717509273
7	0.5629916381
8	0.5528205569
9	0.5413864215
10	0.5360921267
11	0.5234243817
12	0.5132560661
13	0.5050501027
14	0.4948582824
15	0.4853925605
16	0.475848481
17	0.471443084
18	0.4675792937
19	0.4596667187
20	0.4520717777
21	0.4476674923
22	0.4417712314
23	0.4384099313
24	0.4331996165
25	0.4306634528
26	0.4279306696
27	0.4232076949
28	0.4203858436
29	0.4174294172
30	0.4149589413
31	0.4119948626
32	0.4097212368
33	0.4076287915
34	0.4041326442
35	0.4023455787
36	0.3992097649
37	0.3977407864
38	0.3958941872
39	0.3943668184
40	0.3927965333
41	0.3913787346
42	0.3886787645
43	0.3870772889
44	0.3855604187
45	0.3844306278
46	0.383210878
47	0.3818068
48	0.3808617057
49	0.379305172
50	0.3777488337
51	0.3767534179
52	0.3751655295
53	0.374233493
54	0.3730193571
55	0.3722358536
56	0.3710444538
57	0.3690915162
58	0.3677464601
59	0.3668832884
60	0.3659081263
61	0.365068015
62	0.3639754912
63	0.3630401331
64	0.3613221954
65	0.3606447399
66	0.3599754067
67	0.3591368603
68	0.3583256631
69	0.3567899739
70	0.3560274861
71	0.3555061263
72	0.3536276161
73	0.3529671355
74	0.3523057483
75	0.3518099718
76	0.3511677394
77	0.3503741471
78	0.3496927797
79	0.3490373052
80	0.3487666121
81	0.3481658554
82	0.3477632075
83	0.3471802689
84	0.3462372941
85	0.345841964
86	0.3451448651
87	0.3446298616
88	0.3441710562
89	0.3435774871
90	0.3432100946
91	0.3427229788
92	0.3422587649
93	0.3418274187
94	0.3413878662
95	0.3406365817
96	0.3401837503
97	0.3396234553
98	0.3391357324
99	0.3387106317
100	0.3382109382
101	0.3378106347
102	0.3374805293
103	0.3371434317
104	0.3368444821
105	0.3364355984
106	0.3360907457
107	0.3355998743
108	0.3353333423
109	0.3348451114
110	0.3344314144
111	0.3340719272
112	0.3334265199
113	0.3330299459
114	0.3325395521
115	0.3320331468
116	0.3317113949
117	0.3310990477
118	0.33075463
119	0.3304666752
120	0.3299721831
121	0.3295268123
122	0.3292074645
123	0.3289724562
124	0.3285400555
125	0.328125104
126	0.3277506971
127	0.3273716539
128	0.3270257537
129	0.3266484942
130	0.326297536
131	0.325903947
132	0.3254044624
133	0.325103574
134	0.3248618956
135	0.3245483229
136	0.3242334519
137	0.3239443054
138	0.3236316578
139	0.3232574914
140	0.3227698185
141	0.3223376108
142	0.3218185287
143	0.3215713893
144	0.3211861279
145	0.3205447322
146	0.3202740995
147	0.3199716902
148	0.3196003665
149	0.3192446306
150	0.3191591967
151	0.3188762194
152	0.3185497303
153	0.3182840741
154	0.3180923252
155	0.3178795599
156	0.3174514034
157	0.317152876
158	0.3163211565
159	0.3160627602
160	0.3159136949
161	0.3154307349
162	0.3150334015
163	0.3146693178
164	0.3144483932
165	0.3141035576
166	0.3135204921
167	0.3131753937
168	0.3129192146
169	0.3125068761
170	0.3122867762
171	0.3119506779
172	0.3115254943
173	0.3111068024
174	0.3108903429
175	0.3105265788
176	0.309425684
177	0.3091881831
178	0.3089638881
179	0.308541265
180	0.3082597189
181	0.3079514707
182	0.3076182296
183	0.3072519576
184	0.3069555585
185	0.3066535559
186	0.306261188
187	0.3060112035
188	0.3057318908
189	0.3054658808
190	0.3052679864
191	0.3051099953
192	0.3048511979
193	0.3044724231
194	0.3042299771
195	0.3039350774
196	0.3035430306
197	0.3034390087
198	0.3031405376
199	0.3029518555
200	0.3027196922
201	0.3025378249
202	0.3023548988
203	0.302124335
204	0.3018796771
205	0.3015231927
206	0.3012554431
207	0.3009479882
208	0.3006277872
209	0.3003400031
210	0.2999944696
211	0.2997766036
212	0.2995156551
213	0.2992633295
214	0.2989064403
215	0.2986894177
216	0.2983215264
217	0.2980482082
218	0.2977773589
219	0.2976086118
220	0.2973929942
221	0.2971828204
222	0.2968456448
223	0.2966438639
224	0.2964196491
225	0.2961557784
226	0.2958750999
227	0.2957102488
228	0.295433083
229	0.2953125348
230	0.2951386418
231	0.2949387453
232	0.2947330356
233	0.2944552877
234	0.2942408363
235	0.2936916276
236	0.2934275327
237	0.2932540763
238	0.2930293069
239	0.2928190099
240	0.2925637388
241	0.2922929642
242	0.2920693218
243	0.2919037683
244	0.291688903
245	0.2915137247
246	0.291277011
247	0.2911107565
248	0.2908450459
249	0.2906762489
250	0.2904502258
251	0.2903971685
252	0.2900861854
253	0.2897877544
254	0.2894496501
255	0.2892586047
256	0.2885955755
257	0.2883644519
258	0.2881538524
259	0.2879645165
260	0.2877283273
261	0.2875817478
262	0.287327179
263	0.2870379886
264	0.2866891385
265	0.2864574711
266	0.2861499679
267	0.2858524593
268	0.2857016718
269	0.2856732855
270	0.2853076816
271	0.2850224564
272	0.2846544175
273	0.2844769674
274	0.2839174389
275	0.2837247697
276	0.2835061064
277	0.283298178
278	0.2829988735
279	0.2827667824
280	0.2825944272
281	0.2822667841
282	0.2819995618
283	0.2818024723
284	0.2817077658
285	0.2815309298
286	0.2813040398
287	0.2811946578
288	0.2809941937
289	0.2806833009
290	0.2804421701
291	0.2802056103
292	0.2800251098
293	0.2798747664
294	0.2796803872
295	0.2794714229
296	0.2792013613
297	0.278945875
298	0.2787995975
299	0.2784982922
300	0.2782246645
301	0.2779635493
302	0.2778489183
303	0.2777824925
304	0.277293005
305	0.2770207054
306	0.2768261412
307	0.2763999849
308	0.2761915751
309	0.2759946928
310	0.2757627623
311	0.2755507276
312	0.2753903335
313	0.2751467062
314	0.2748843552
315	0.2746591486
316	0.2744198169
317	0.2742001283
318	0.2738442321
319	0.2735837463
320	0.2732833578
321	0.2730189555
322	0.2728330483
323	0.2724673503
324	0.2722991035
325	0.2720095277
326	0.271789887
327	0.2716868771
328	0.2715794695
329	0.2714280815
330	0.2711822861
331	0.2709972941
332	0.2708256291
333	0.2705413165
334	0.2703170696
335	0.2700404284
336	0.269740983
337	0.2695387887
338	0.269261739
339	0.2690347939
340	0.2688811864
341	0.268745465
342	0.2685933055
343	0.2682325649
344	0.268121404
345	0.2678976768
346	0.2677189666
347	0.267487706
348	0.26727803
349	0.2670702814
350	0.2669216145
351	0.2666705179
352	0.2665390306
353	0.2663459385
354	0.2659634506
355	0.2658253039
356	0.2656641461
357	0.2655053123
358	0.2652405406
359	0.2649977452
360	0.264771645
361	0.2645435472
362	0.2643319912
363	0.2641103666
364	0.263923756
365	0.2637102804
366	0.2635525938
367	0.2633213867
368	0.2630889925
369	0.2629620735
370	0.2628420387
371	0.2626463826
372	0.2625108826
373	0.262185293
374	0.2619098534
375	0.2616794301
376	0.2615309786
377	0.2614056145
378	0.2610273407
379	0.2608448615
380	0.2606499312
381	0.2602947259
382	0.260118929
383	0.2597702751
384	0.259527555
385	0.2592948352
386	0.2590322401
387	0.2588269562
388	0.2586778086
389	0.2582484998
390	0.2580850754
391	0.2577866276
392	0.2575600206
393	0.2573500844
394	0.2571217399
395	0.2568739952
396	0.2566933283
397	0.2565051691
398	0.2563643605
399	0.256121145
400	0.2558255212
401	0.2556134043
402	0.2552752464
403	0.2551611473
404	0.2548683718
405	0.2546202421
406	0.2544514132
407	0.2542427231
408	0.2540201641
409	0.2537853137
410	0.2536220309
411	0.2533174453
412	0.2531736671
413	0.2529821509
414	0.2528159284
415	0.2525646473
416	0.2522592097
417	0.2521007618
418	0.2519048388
419	0.2516825735
420	0.2515290503
421	0.2512219729
422	0.2508787901
423	0.2506333638
424	0.2504330935
425	0.2502460205
426	0.2500389992
427	0.2498112575
428	0.2495550801
429	0.2493194138
430	0.2490221839
431	0.2488618288
432	0.2487022725
433	0.2484911057
434	0.2483117895
435	0.2479082952
436	0.2477968912
437	0.2475923249
438	0.247404492
439	0.247135238
440	0.246984673
441	0.2468094332
442	0.2466624526
443	0.2463995414
444	0.2462613208
445	0.2461283446
446	0.2458607139
447	0.2456599898
448	0.2455454729
449	0.2454075886
450	0.2450816571
451	0.2449441356
452	0.2447970438
453	0.2445983473
454	0.2443589308
455	0.2440803117
456	0.2439424936
457	0.2437369871
458	0.2434495126
459	0.2432312775
460	0.243059744
461	0.2429299947
462	0.2427546591
463	0.2425583763
464	0.2424077319
465	0.2421360643
466	0.242023425
467	0.2418102489
468	0.2415253414
469	0.2413128434
470	0.2410326531
471	0.2407598042
472	0.2406052784
473	0.2403484789
474	0.2400756118
475	0.2398466995
476	0.2395950763
477	0.2394015878
478	0.239085234
479	0.2389331721
480	0.2388095937
481	0.2386445614
482	0.2384499427
483	0.2382594486
484	0.2380563399
485	0.2377014803
486	0.2374789283
487	0.2372284952
488	0.237032343
489	0.2368853832
490	0.2367537664
491	0.2366116049
492	0.2364054282
493	0.2361905696
494	0.2360098671
495	0.2357569058
496	0.2355396531
497	0.2354167239
498	0.2351986642
499	0.2349961816
500	0.2348816883
501	0.234585743
502	0.2343138596
503	0.2341974605
504	0.2339694097
505	0.233870387
506	0.2336998272
507	0.2335320818
508	0.2333160702
509	0.2330597625
510	0.232873936
511	0.2327395724
512	0.2325425921
513	0.2322909905
514	0.2320839427
515	0.2318413723
516	0.2315617426
517	0.231310478
518	0.2312036205
519	0.2309116231
520	0.2307156598
521	0.2305643119
522	0.2303338583
523	0.2300435583
524	0.2299081421
525	0.229648038
526	0.2294739442
527	0.2292849426
528	0.2291365816
529	0.2289707278
530	0.2287239348
531	0.2284334954
532	0.2282012095
533	0.2280681688
534	0.2279053098
535	0.2277311495
536	0.2275800615
537	0.2273960121
538	0.2272620897
539	0.227133276
540	0.2269832616
541	0.2268405535
542	0.2266627306
543	0.2265277083
544	0.2263223369
545	0.2260552345
546	0.2259028922
547	0.2257601854
548	0.2255698335
549	0.2254015892
550	0.2252424273
551	0.2249884832
552	0.2248389497
553	0.2247108582
554	0.2245287888
555	0.2243911448
556	0.2242379875
557	0.2239969661
558	0.2237749206
559	0.22359089
560	0.2233522769
561	0.2232130108
562	0.2230210343
563	0.2229046128
564	0.2226605079
565	0.2224215046
566	0.2222224613
567	0.2221086159
568	0.2218438155
569	0.2216554565
570	0.2214860915
571	0.221312386
572	0.2210195024
573	0.220882991
574	0.2206835804
575	0.2205556592
576	0.2203627942
577	0.2202216494
578	0.2201030262
579	0.219884538
580	0.2196350516
581	0.219499442
582	0.2192857556
583	0.2190353779
584	0.2189152239
585	0.2186733266
586	0.2183768402
587	0.2182760792
588	0.2180679351
589	0.2178732913
590	0.2176416034
591	0.2174103869
592	0.2171323947
593	0.2170118353
594	0.2168428912
595	0.2166485833
596	0.2164656636
597	0.2163271507
598	0.2161700111
599	0.2160767965
600	0.2158907649
601	0.2157540883
602	0.2155528184
603	0.2153583955
604	0.2150675518
605	0.2149171075
606	0.2147856577
607	0.2146624673
608	0.2144673182
609	0.2143595405
610	0.2142148588
611	0.2140733907
612	0.2139059583
613	0.2137569687
614	0.2134898427
615	0.2133721392
616	0.2131936616
617	0.2129795285
618	0.2128096936
619	0.2126734309
620	0.212494789
621	0.2123324266
622	0.2121492359
623	0.2120318249
624	0.2118754309
625	0.2117370718
626	0.2116121424
627	0.2113692304
628	0.2111330824
629	0.210973326
630	0.2107232654
631	0.2106308186
632	0.2104597317
633	0.2102673899
634	0.2101751227
635	0.2099432737
636	0.2098266903
637	0.2095880438
638	0.2094151237
639	0.2093050864
640	0.2091097357
641	0.2089995481
642	0.2088913584
643	0.2087266413
644	0.208570655
645	0.2084313429
646	0.2081965624
647	0.2080511478
648	0.2079298805
649	0.2077764678
650	0.207625935
651	0.2073906555
652	0.207087117
653	0.2070185884
654	0.2068568625
655	0.2067645856
656	0.2066283102
657	0.2064395082
658	0.2063616295
659	0.206244308
660	0.2060905267
661	0.2059743514
662	0.2058884309
663	0.2056452108
664	0.205486873
665	0.2052848195
666	0.2050710264
667	0.2049429411
668	0.2048456261
669	0.2046897846
670	0.2045123878
671	0.2043885003
672	0.204306129
673	0.2041698982
674	0.2041011832
675	0.2039811957
676	0.2038097326
677	0.2035970417
678	0.2033729486
679	0.203283747
680	0.2031345939
681	0.2029466868
682	0.2028773443
683	0.2026689605
684	0.2025929759
685	0.2024720908
686	0.202343896
687	0.2021842837
688	0.2020742329
689	0.2018953274
690	0.2017263081
691	0.2015007587
692	0.2013847967
693	0.2012305128
694	0.2010294968
695	0.2008493449
696	0.2007107648
697	0.2005541122
698	0.2004049275
699	0.2002083586
700	0.1999882726
701	0.199921696
702	0.1997756446
703	0.1997453418
704	0.1995517811
705	0.199432178
706	0.1992740338
707	0.1991725323
708	0.1990654602
709	0.1988397955
710	0.1986759256
711	0.1984515399
712	0.1983436859
713	0.198222084
714	0.1980816121
715	0.1979670937
716	0.1978269552
717	0.1976221797
718	0.1974953711
719	0.1973782008
720	0.1971169226
721	0.1969502355
722	0.1968052915
723	0.1966440333
724	0.1965462904
725	0.1962684964
726	0.1961460046
727	0.19602219
728	0.1958967686
729	0.1957488352
730	0.1956236587
731	0.1955031943
732	0.1953054612
733	0.1951608899
734	0.1949910427
735	0.1947868115
736	0.1946752098
737	0.1945124798
738	0.1943715828
739	0.1942252908
740	0.1940875009
741	0.1939509579
742	0.1938354731
743	0.1936927047
744	0.1935485945
745	0.1933708304
746	0.1931396375
747	0.1930294496
748	0.192809786
749	0.1926787544
750	0.1925780428
751	0.1924279411
752	0.1923176387
753	0.1921202414
754	0.191989279
755	0.1918436458
756	0.191760324
757	0.1915757519
758	0.1914329324
759	0.1913129465
760	0.1912271525
761	0.1911274645
762	0.1910262315
763	0.190838108
764	0.1907530087
765	0.1906649952
766	0.1904883618
767	0.1903842029
768	0.1902699142
769	0.1901683472
770	0.1899932789
771	0.1898096442
772	0.1896772499
773	0.189449205
774	0.1893669606
775	0.1892098608
776	0.1891419696
777	0.1889814769
778	0.188844214
779	0.1886584032
780	0.1884904046
781	0.1883574414
782	0.1882437196
783	0.1880972915
784	0.1879674937
785	0.1877916536
786	0.1877215243
787	0.1875501382
788	0.1873982912
789	0.1872179657
790	0.1871794025
791	0.1870449363
792	0.186946602
793	0.1867551456
794	0.1865499566
795	0.1864032531
796	0.1862868766
797	0.1861979699
798	0.1860054116
799	0.185860489
800	0.185736112
801	0.1855540025
802	0.1854634052
803	0.1853606671
804	0.1852578141
805	0.1850385662
806	0.1848837863
807	0.1847275215
808	0.1846318128
809	0.1844372097
810	0.1843393228
811	0.1842268605
812	0.1840488074
813	0.1839164463
814	0.1837346043
815	0.1836342528
816	0.1834978433
817	0.1833909105
818	0.1832663761
819	0.1832309215
820	0.183115717
821	0.1830225099
822	0.1828866951
823	0.1827485488
824	0.1826098763
825	0.1824737786
826	0.18233824
827	0.1821649962
828	0.1820382841
829	0.1819595052
830	0.1818874096
831	0.1817877659
832	0.1816183364
833	0.1814439229
834	0.1812992997
835	0.1812011717
836	0.1810562031
837	0.1809212214
838	0.1808687292
839	0.1807829862
840	0.1806864455
841	0.1805249233
842	0.1803762428
843	0.1802441132
844	0.1800675705
845	0.179941283
846	0.1797797552
847	0.1796583236
848	0.1794898271
849	0.1793334513
850	0.1792232051
851	0.1790804132
852	0.1790276076
853	0.1789248645
854	0.1788035
855	0.1786829893
856	0.178544611
857	0.1784194912
858	0.1781755996
859	0.1780728249
860	0.1779682548
861	0.1777956003
862	0.1776901073
863	0.1776173602
864	0.1775292786
865	0.1773649591
866	0.1772472486
867	0.1770610618
868	0.1769502186
869	0.1768590112
870	0.1767003339
871	0.1766662489
872	0.176524665
873	0.1763959842
874	0.1763368585
875	0.1762514045
876	0.1761539005
877	0.1759990191
878	0.1759275088
879	0.175763354
880	0.1756432197
881	0.1755343609
882	0.1754495922
883	0.1753241888
884	0.1751931832
885	0.1750949006
886	0.1749540345
887	0.1747552389
888	0.1746292431
889	0.174430586
890	0.1743384946
891	0.1742167509
892	0.1740697858
893	0.1739725442
894	0.1738429406
895	0.1737560552
896	0.1736498977
897	0.1735058742
898	0.1734275856
899	0.1732994271
900	0.1732121448
901	0.1729661448
902	0.172833663
903	0.1727518896
904	0.1726389178
905	0.1724709816
906	0.1723933054
907	0.1722795341
908	0.1721350801
909	0.1720035805
910	0.1718906886
911	0.1718118653
912	0.1717016517
913	0.1715705128
914	0.1714392897
915	0.1712917855
916	0.1711652181
917	0.1710095896
918	0.1709034296
919	0.1708215364
920	0.1707095499
921	0.170582636
922	0.1704366801
923	0.1703200971
924	0.1702037929
925	0.1700631049
926	0.1699638243
927	0.1698722444
928	0.169803376
929	0.1696720114
930	0.1695058118
931	0.1693347441
932	0.1692321631
933	0.1691580244
934	0.1690515459
935	0.1689067464
936	0.168680223
937	0.1686186212
938	0.1685184376
939	0.1683737839
940	0.1682630541
941	0.1680593922
942	0.1679839536
943	0.1678684924
944	0.1677611683
945	0.1675974153
946	0.1675107399
947	0.1673963363
948	0.1672656561
949	0.1672265394
950	0.1671183576
951	0.1669981439
952	0.1668902763
953	0.1667815528
954	0.1666252853
955	0.1665664765
956	0.1664502389
957	0.1663775299
958	0.1663503738
959	0.1662741022
960	0.1661737682
961	0.1661030873
962	0.1660112784
963	0.1659008959
964	0.1657936311
965	0.1656499371
966	0.1655575417
967	0.1654424978
968	0.1652600403
969	0.1650997601
970	0.1650650552
971	0.1649615328
972	0.1648910335
973	0.1648172474
974	0.1646692678
975	0.1645416563
976	0.164361067
977	0.1642640272
978	0.1641263226
979	0.1640300227
980	0.1639070506
981	0.1638164338
982	0.1637025214
983	0.1636030159
984	0.163498842
985	0.1633619516
986	0.1632542284
987	0.1630427026
988	0.1629470498
989	0.1628779862
990	0.1627923495
991	0.162647743
992	0.1625504724
993	0.1624447461
994	0.1623669052
995	0.1622553939
996	0.1621413019
997	0.1619722075
998	0.16188909
999	0.1617076299
